{
  "fluentMethods": true,
  "clientRootFolder": "assign",
  "relationships": [
    {
      "relationshipName": "contact",
      "otherEntityName": "contact",
      "relationshipType": "many-to-one",
      "otherEntityField": "id",
      "otherEntityRelationshipName": "contactRepository"
    }
  ],
  "fields": [
    {
      "fieldName": "repository",
      "fieldType": "String"
    }
  ],
  "changelogDate": "20200803111340",
  "dto": "no",
  "searchEngine": false,
  "service": "no",
  "entityTableName": "contact_repository",
  "databaseType": "sql",
  "readOnly": false,
  "jpaMetamodelFiltering": false,
  "pagination": "no",
  "microserviceName": "assign"
}
